Homework Week #3
…
2c. Use this data frame to get simulated upper quartiles for each sample size. using 1,000 simulations

samp_replicate <- df %>%
  # taking the new dataframe of sample sizes 5-20 and going rowwise, accounting for sample size 
  rowwise(samp_size) %>%
  # replicate 1000 times but get the upper quartiles   
  summarize(vole_samp = replicate(1000, quantile(sample(vole_vaso, samp_size), probs = 0.75))) #sample of dataset replicated 1000 times

## `summarise()` regrouping output by 'samp_size' (override with `.groups` argument)

samp_replicate#view samp_replicate to see the upper quartiles for each sample size 

## # A tibble: 16,000 x 2
## # Groups:   samp_size [16]
##    samp_size vole_samp
##        <int>     <dbl>
##  1         5        82
##  2         5        60
##  3         5        50
##  4         5        59
##  5         5        59
##  6         5        59
##  7         5        94
##  8         5        96
##  9         5        60
## 10         5        77
## # ... with 15,990 more rows
…
## Parsed with column specification:
## cols(
##   Year = col_double(),
##   Month = col_double(),
##   Day = col_double(),
##   Extent = col_double(),
##   Missing = col_double(),
##   Month_Name = col_character()
## )

ice #view ice 

## # A tibble: 458 x 6
##     Year Month   Day Extent Missing Month_Name
##    <dbl> <dbl> <dbl>  <dbl>   <dbl> <fct>     
##  1  1978    11     1  10.7        0 Nov       
##  2  1978    12     1  12.7        0 Dec       
##  3  1979     2     1  15.9        0 Feb       
##  4  1979     3     1  16.6        0 Mar       
##  5  1979     6     1  13.1        0 Jun       
##  6  1979     7     1  11.6        0 Jul       
##  7  1979     9     1   7.23       0 Sep       
##  8  1979    10     1   7.40       0 Oct       
##  9  1980     1     1  14.2        0 Jan       
## 10  1980     3     1  16.2        0 Mar       
## # ... with 448 more rows
…
