Homework #7
…
#We see that the polynomial fifth order fit is a better fit to the data and that is shown by a slightly higher r^2 value of 0.27 vs 0.24 for the linear fit. 

Does that result hold up, or is it due to overfitting? Lets evaluate by comparing 5-fold CV scores using RMSE. Lets do this efficiently, though!

2A. Get things ready! Make a 5-fold cross validation tibble using rsample::vfold_cv() and then combine each possible fold with the polynomials 1:5 using tidyr::crossing()

#5 fold cross validation tibble using prog dataset 
prog_five_fold <- rsample::vfold_cv(prog, v=5) %>%
  
#combining each possible fold with the polynomials 1:5
    tidyr::crossing(p=1:5) 

prog_five_fold 

## # A tibble: 25 x 3
##    splits         id        p
##    <list>         <chr> <int>
##  1 <split [24/6]> Fold1     1
##  2 <split [24/6]> Fold1     2
##  3 <split [24/6]> Fold1     3
##  4 <split [24/6]> Fold1     4
##  5 <split [24/6]> Fold1     5
##  6 <split [24/6]> Fold2     1
##  7 <split [24/6]> Fold2     2
##  8 <split [24/6]> Fold2     3
##  9 <split [24/6]> Fold2     4
## 10 <split [24/6]> Fold2     5
## # ... with 15 more rows
…
?map2

## starting httpd help server ... done

#create a new column, fit model, which we make with map2, iterating over all splits AND polynomials 
fit_mod_prog <- prog_five_fold  %>%
    mutate(fit_model = map2(splits,
                          p,
                         ~lm(ventilation ~ poly(progesterone, .y),
                         data = analysis(.x))))
#analysis gives us our testing data set   

fit_mod_prog

## # A tibble: 25 x 4
##    splits         id        p fit_model
##    <list>         <chr> <int> <list>   
##  1 <split [24/6]> Fold1     1 <lm>     
##  2 <split [24/6]> Fold1     2 <lm>     
##  3 <split [24/6]> Fold1     3 <lm>     
##  4 <split [24/6]> Fold1     4 <lm>     
##  5 <split [24/6]> Fold1     5 <lm>     
##  6 <split [24/6]> Fold2     1 <lm>     
##  7 <split [24/6]> Fold2     2 <lm>     
##  8 <split [24/6]> Fold2     3 <lm>     
##  9 <split [24/6]> Fold2     4 <lm>     
## 10 <split [24/6]> Fold2     5 <lm>     
## # ... with 15 more rows

2C. Great! Now, calculate the rmse for each fold/polynomial combination as we did in lab.

#create a new column, rmse, which we make with map2, iterating over all splits and fit models 
rmse_prog <- fit_mod_prog  %>%
  mutate(rmse = map2_dbl(.x = splits, .y = fit_model,
                         ~rmse(model = .y,
                               data = assessment(.x))))
#assessment gives us our training data set 

rmse_prog

## # A tibble: 25 x 5
##    splits         id        p fit_model  rmse
##    <list>         <chr> <int> <list>    <dbl>
##  1 <split [24/6]> Fold1     1 <lm>       6.83
##  2 <split [24/6]> Fold1     2 <lm>       6.66
##  3 <split [24/6]> Fold1     3 <lm>       6.93
##  4 <split [24/6]> Fold1     4 <lm>       6.92
##  5 <split [24/6]> Fold1     5 <lm>       8.15
##  6 <split [24/6]> Fold2     1 <lm>      13.4 
##  7 <split [24/6]> Fold2     2 <lm>      13.5 
##  8 <split [24/6]> Fold2     3 <lm>      14.2 
##  9 <split [24/6]> Fold2     4 <lm>      14.4 
## 10 <split [24/6]> Fold2     5 <lm>      15.1 
## # ... with 15 more rows
…
sd(peng_gentoo_females$flipper_length_mm) 

## [1] 3.897856

#standard deviation of flipper length for females is 3.897856

5B. OK, this is pretty normal, with a mean of 212.71 and sd of 3.9. Make a grid to search a number of values around that mean and SD, just as you did for likelihood. Lets say 100 values of each parameter.

#making a grid using crossing and estimating my mean with values of 210-215, and estimating my sd with values of 3-4 each with a length of 100 to yield 10,000 rows
peng_grid_samp <- crossing(mean = seq(210,215, length.out = 100), 
                      sd = seq(3,4, length.out = 100)) 

peng_grid_samp 

## # A tibble: 10,000 x 2
##     mean    sd
##    <dbl> <dbl>
##  1   210  3   
##  2   210  3.01
##  3   210  3.02
##  4   210  3.03
##  5   210  3.04
##  6   210  3.05
##  7   210  3.06
##  8   210  3.07
##  9   210  3.08
## 10   210  3.09
## # ... with 9,990 more rows
…
