Bio 607 Mideterm
…
#Testing to see if my function works
#My function returns a dataframe containing daily values for each state along with cumulative case values 
TX <- state_function("Texas")

## `summarise()` ungrouping output (override with `.groups` argument)

MA <- state_function("Massachusetts")

## `summarise()` ungrouping output (override with `.groups` argument)

MA #viewing dataframe

## # A tibble: 285 x 3
##    date_col   new_daily_cases cumulative_cases
##    <date>               <dbl>            <dbl>
##  1 2020-01-23               0                0
##  2 2020-01-24               0                0
##  3 2020-01-25               0                0
##  4 2020-01-26               0                0
##  5 2020-01-27               0                0
##  6 2020-01-28               0                0
##  7 2020-01-29               1                1
##  8 2020-01-30               0                1
##  9 2020-01-31               0                1
## 10 2020-02-01               0                1
## # ... with 275 more rows

TX

## # A tibble: 286 x 3
##    date_col   new_daily_cases cumulative_cases
##    <date>               <dbl>            <dbl>
##  1 2020-01-23               0                0
##  2 2020-01-24               0                0
##  3 2020-01-25               0                0
##  4 2020-01-26               0                0
##  5 2020-01-27               0                0
##  6 2020-01-28               0                0
##  7 2020-01-29               0                0
##  8 2020-01-30               0                0
##  9 2020-01-31               0                0
## 10 2020-02-01               0                0
## # ... with 276 more rows
…
